PathTesting/grbl1.vcd
$timescale 1 ns $end
$scope module top $end
$var wire 1 ! X_STEP $end
$var wire 1 " X_DIR $end
$var wire 1 # Y_STEP $end
$var wire 1 $ Y_DIR $end
$var wire 1 % Z_STEP $end
$var wire 1 & Z_DIR $end
$upscope $end
$enddefinitions $end
#0
0!
0"
0#
0$
0%
1&
#1534228541
0&
#1539236375
1!
#1539246166
0!
#1549251458
1!
#1549261291
0!
#1555511166
1!
#1555521125
0!
#1559517666
1!
#1559527625
0!
#1562898375
1!
#1562908208
0!
#1565903333
1!
#1565913291
0!
#1568908291
1!
#1568918250
0!
#1571913791
1!
#1571923750
0!
#1574431416
1!
#1574441000
0!
#1576657208
1!
#1576666875
0!
#1578883000
1!
#1578892708
0!
#1581109000
1!
#1581118583
0!
#1583102750
1!
#1583112541
0!
#1584957625
1!
#1584967291
0!
#1586812333
1!
#1586822083
0!
#1588667166
1!
#1588676875
0!
#1590521958
1!
#1590531666
0!
#1592376750
1!
#1592386458
0!
#1594035583
1!
#1594045416
0!
#1595576875
1!
#1595586791
0!
#1597118166
1!
#1597128125
0!
#1598659500
1!
#1598669416
0!
#1600200791
1!
#1600210750
0!
#1601742166
1!
#1601752000
0!
#1603163125
1!
#1603172708
0!
#1604512000
1!
#1604521666
0!
#1605859958
1!
#1605869666
0!
#1607208541
1!
#1607218208
0!
#1608557041
1!
#1608566708
0!
#1609905750
1!
#1609915333
0!
#1611254083
1!
#1611263791
0!
#1612602666
1!
#1612612291
0!
#1613845041
1!
#1613854666
0!
#1615023875
1!
#1615033416
0!
#1616202541
1!
#1616212208
0!
#1617381375
1!
#1617390958
0!
#1618560083
1!
#1618569750
0!
#1619738875
1!
#1619748500
0!
#1620917708
1!
#1620927291
0!
#1622096791
1!
#1622106541
0!
#1623201375
1!
#1623211208
0!
#1624261958
1!
#1624271791
0!
#1625322500
1!
#1625332458
0!
#1626383083
1!
#1626393041
0!
#1627443666
1!
#1627453625
0!
#1628504291
1!
#1628514208
0!
#1629565000
1!
#1629574750
0!
#1630625458
1!
#1630635416
0!
#1631686041
1!
#1631696000
0!
#1632746708
1!
#1632756541
0!
#1633740625
1!
#1633750583
0!
#1634694541
1!
#1634704500
0!
#1635648416
1!
#1635658375
0!
#1636602375
1!
#1636612333
0!
#1637556291
1!
#1637566250
0!
#1638510208
1!
#1638520166
0!
#1639464166
1!
#1639474125
0!
#1640418083
1!
#1640428041
0!
#1641372000
1!
#1641381958
0!
#1642326000
1!
#1642335958
0!
#1643230416
1!
#1643240250
0!
#1644105291
1!
#1644115083
0!
#1644980125
1!
#1644989875
0!
#1645854916
1!
#1645864708
0!
#1646729750
1!
#1646739500
0!
#1647604541
1!
#1647614333
0!
#1648479375
1!
#1648489125
0!
#1649354125
1!
#1649363958
0!
#1650228958
1!
#1650238750
0!
#1651103833
1!
#1651113583
0!
#1651978625
1!
#1651988375
0!
#1652810833
1!
#1652820625
0!
#1653617583
1!
#1653627375
0!
#1654424250
1!
#1654434083
0!
#1655231125
1!
#1655240791
0!
#1656037708
1!
#1656047500
0!
#1656844416
1!
#1656854208
0!
#1657651083
1!
#1657660916
0!
#1658457833
1!
#1658467625
0!
#1659264500
1!
#1659274333
0!
#1660071208
1!
#1660081041
0!
#1660878000
1!
#1660887750
0!
#1661684625
1!
#1661694458
0!
#1662491333
1!
#1662501166
0!
#1663259250
1!
#1663268833
0!
#1664004000
1!
#1664013958
0!
#1664748541
1!
#1664758125
0!
#1665493083
1!
#1665502666
0!
#1666237791
1!
#1666247375
0!
#1666982416
1!
#1666991958
0!
#1667727000
1!
#1667736583
0!
#1668471625
1!
#1668481208
0!
#1669216166
1!
#1669225750
0!
#1669960791
1!
#1669970375
0!
#1670705416
1!
#1670715000
0!
#1671450166
1!
#1671460125
0!
#1672194666
1!
#1672204250
0!
#1672907958
1!
#1672917791
0!
#1673602583
1!
#1673612333
0!
#1674297125
1!
#1674306875
0!
#1674991625
1!
#1675001416
0!
#1675686166
1!
#1675695958
0!
#1676380708
1!
#1676390500
0!
#1677075291
1!
#1677085041
0!
#1677769833
1!
#1677779625
0!
#1678464375
1!
#1678474166
0!
#1679158916
1!
#1679168708
0!
#1679853416
1!
#1679863250
0!
#1680547958
1!
#1680557791
0!
#1681242666
1!
#1681252333
0!
#1681937083
1!
#1681946875
0!
#1682631583
1!
#1682641416
0!
#1683297083
1!
#1683306916
0!
#1683945000
1!
#1683954958
0!
#1684593000
1!
#1684602833
0!
#1685241041
1!
#1685250833
0!
#1685888916
1!
#1685898875
0!
#1686536875
1!
#1686546833
0!
#1687184833
1!
#1687194791
0!
#1687832833
1!
#1687842791
0!
#1688480791
1!
#1688490750
0!
#1689128750
1!
#1689138708
0!
#1689776750
1!
#1689786708
0!
#1690424875
1!
#1690434583
0!
#1691073041
1!
#1691082625
0!
#1691721208
1!
#1691731041
0!
#1692368625
1!
#1692378583
0!
#1693016708
1!
#1693026500
0!
#1693639291
1!
#1693648916
0!
#1694246625
1!
#1694256333
0!
#1694854041
1!
#1694863750
0!
#1695461500
1!
#1695471166
0!
#1696068916
1!
#1696078583
0!
#1696676291
1!
#1696686000
0!
#1697283708
1!
#1697293416
0!
#1697891166
1!
#1697900791
0!
#1698498583
1!
#1698508208
0!
#1699105916
1!
#1699115625
0!
#1699713333
1!
#1699723041
0!
#1700320833
1!
#1700330458
0!
#1700928208
1!
#1700937875
0!
#1701535583
1!
#1701545291
0!
#1702143000
1!
#1702152708
0!
#1702750458
1!
#1702760083
0!
#1703336541
1!
#1703346500
0!
#1703909958
1!
#1703919916
0!
#1704483250
1!
#1704493208
0!
#1705056666
1!
#1705066625
0!
#1705630041
1!
#1705640000
0!
#1706203375
1!
#1706213333
0!
#1706776708
1!
#1706786666
0!
#1707350041
1!
#1707360000
0!
#1707924041
1!
#1707933875
0!
#1708496791
1!
#1708506708
0!
#1709070208
1!
#1709080166
0!
#1709643541
1!
#1709653500
0!
#1710216875
1!
#1710226791
0!
#1710790208
1!
#1710800166
0!
#1711363625
1!
#1711373583
0!
#1711937000
1!
#1711946958
0!
#1712510291
1!
#1712520250
0!
#1713083708
1!
#1713093666
0!
#1713637375
1!
#1713646958
0!
#1714179750
1!
#1714189333
0!
#1714721000
1!
#1714730583
0!
#1715262750
1!
#1715272375
0!
#1715804541
1!
#1715814208
0!
#1716346416
1!
#1716356000
0!
#1716888166
1!
#1716897833
0!
#1717430125
1!
#1717439708
0!
#1717971791
1!
#1717981458
0!
#1718513625
1!
#1718523250
0!
#1719055416
1!
#1719065083
0!
#1719597291
1!
#1719606875
0!
#1720139041
1!
#1720148708
0!
#1720680916
1!
#1720690500
0!
#1721222708
1!
#1721232333
0!
#1721764500
1!
#1721774125
0!
#1722306375
1!
#1722315958
0!
#1722848125
1!
#1722857750
0!
#1723373166
1!
#1723383125
0!
#1723887791
1!
#1723897375
0!
#1724402583
1!
#1724412166
0!
#1724917875
1!
#1724927458
0!
#1725432125
1!
#1725441708
0!
#1725947041
1!
#1725957000
0!
#1726461666
1!
#1726471250
0!
#1726976500
1!
#1726986458
0!
#1727491333
1!
#1727501291
0!
#1728006000
1!
#1728015583
0!
#1728520750
1!
#1728530333
0!
#1729035583
1!
#1729045541
0!
#1729550375
1!
#1729560333
0!
#1730065166
1!
#1730075083
0!
#1730579875
1!
#1730589458
0!
#1731094708
1!
#1731104666
0!
#1731609458
1!
#1731619416
0!
#1732124250
1!
#1732134208
0!
#1732638958
1!
#1732648541
0!
#1733153791
1!
#1733163750
0!
#1733713291
1!
#1733723083
0!
#1734202041
1!
#1734211833
0!
#1734690791
1!
#1734700541
0!
#1735179500
1!
#1735189291
0!
#1735668250
1!
#1735678000
0!
#1736157000
1!
#1736166750
0!
#1736645708
1!
#1736655500
0!
#1737134458
1!
#1737144208
0!
#1737623166
1!
#1737632958
0!
#1738111916
1!
#1738121666
0!
#1738600666
1!
#1738610416
0!
#1739089708
1!
#1739099666
0!
#1739578125
1!
#1739587875
0!
#1740066916
1!
#1740076625
0!
#1740555625
1!
#1740565333
0!
#1741044375
1!
#1741054083
0!
#1741533125
1!
#1741542833
0!
#1742021833
1!
#1742031541
0!
#1742510583
1!
#1742520291
0!
#1742999333
1!
#1743009000
0!
#1743471333
1!
#1743481291
0!
#1743937708
1!
#1743947416
0!
#1744404250
1!
#1744414208
0!
#1744870625
1!
#1744880333
0!
#1745337083
1!
#1745347041
0!
#1745803541
1!
#1745813208
0!
#1746269958
1!
#1746279916
0!
#1746736416
1!
#1746746125
0!
#1747202875
1!
#1747212833
0!
#1747669333
1!
#1747679041
0!
#1748135833
1!
#1748145791
0!
#1748602291
1!
#1748611916
0!
#1749068750
1!
#1749078708
0!
#1749535125
1!
#1749544833
0!
#1750001583
1!
#1750011541
0!
#1750468083
1!
#1750477750
0!
#1750935083
1!
#1750944916
0!
#1751401000
1!
#1751410625
0!
#1751867458
1!
#1751877375
0!
#1752333833
1!
#1752343541
0!
#1752800416
1!
#1752810250
0!
#1753266833
1!
#1753276416
0!
#1753717541
1!
#1753727125
0!
#1754162833
1!
#1754172791
0!
#1754608250
1!
#1754617958
0!
#1755053708
1!
#1755063666
0!
#1755499125
1!
#1755508791
0!
#1755944500
1!
#1755954458
0!
#1756389916
1!
#1756399625
0!
#1756835333
1!
#1756845291
0!
#1757280833
1!
#1757290458
0!
#1757726250
1!
#1757736208
0!
#1758171666
1!
#1758181291
0!
#1758617000
1!
#1758626958
0!
#1759062625
1!
#1759072208
0!
#1759508291
1!
#1759517875
0!
#1759953250
1!
#1759962958
0!
#1760398666
1!
#1760408625
0!
#1760844083
1!
#1760853791
0!
#1761289583
1!
#1761299541
0!
#1761734916
1!
#1761744625
0!
#1762180375
1!
#1762190291
0!
#1762625791
1!
#1762635500
0!
#1763071208
1!
#1763081166
0!
#1763502583
1!
#1763512291
0!
#1763929166
1!
#1763938916
0!
#1764355791
1!
#1764365583
0!
#1764782500
1!
#1764792208
0!
#1765209291
1!
#1765218875
0!
#1765635750
1!
#1765645500
0!
#1766062416
1!
#1766072125
0!
#1766489000
1!
#1766498791
0!
#1766915666
1!
#1766925416
0!
#1767342375
1!
#1767352041
0!
#1767769000
1!
#1767778708
0!
#1768195583
1!
#1768205333
0!
#1768622416
1!
#1768632000
0!
#1769048833
1!
#1769058625
0!
#1769475500
1!
#1769485250
0!
#1769902208
1!
#1769911916
0!
#1770328833
1!
#1770338541
0!
#1770755416
1!
#1770765166
0!
#1771182125
1!
#1771191833
0!
#1771608750
1!
#1771618458
0!
#1772035416
1!
#1772045083
0!
#1772462041
1!
#1772471750
0!
#1772888625
1!
#1772898375
0!
#1773315333
1!
#1773325041
0!
#1773728583
1!
#1773738125
0!
#1774137500
1!
#1774147250
0!
#1774546291
1!
#1774555875
0!
#1774955291
1!
#1774965000
0!
#1775364083
1!
#1775373666
0!
#1775772875
1!
#1775782708
0!
#1776181750
1!
#1776191333
0!
#1776590791
1!
#1776600458
0!
#1776999541
1!
#1777009125
0!
#1777408333
1!
#1777418166
0!
#1777817375
1!
#1777827333
0!
#1778226083
1!
#1778235875
0!
#1778634916
1!
#1778644500
0!
#1779043833
1!
#1779053625
0!
#1779452666
1!
#1779462250
0!
#1779861625
1!
#1779871333
0!
#1780270458
1!
#1780280041
0!
#1780679250
1!
#1780689083
0!
#1781088125
1!
#1781097708
0!
#1781496958
1!
#1781506791
0!
#1781905916
1!
#1781915458
0!
#1782314708
1!
#1782324541
0!
#1782723583
1!
#1782733125
0!
#1783132416
1!
#1783142250
0!
#1783529833
1!
#1783539416
0!
#1783923041
1!
#1783933000
0!
#1784316333
1!
#1784326041
0!
#1784709750
1!
#1784719708
0!
#1785103000
1!
#1785112708
0!
#1785496333
1!
#1785506291
0!
#1785889750
1!
#1785899416
0!
#1786283208
1!
#1786293000
0!
#1786676375
1!
#1786686083
0!
#1787069791
1!
#1787079750
0!
#1787463250
1!
#1787472833
0!
#1787856875
1!
#1787866833
0!
#1788249791
1!
#1788259458
0!
#1788643125
1!
#1788653083
0!
#1789036458
1!
#1789046125
0!
#1789429750
1!
#1789439708
0!
#1789823083
1!
#1789832791
0!
#1790216416
1!
#1790226375
0!
#1790609791
1!
#1790619458
0!
#1791003166
1!
#1791013125
0!
#1791396583
1!
#1791406166
0!
#1791789875
1!
#1791799791
0!
#1792183208
1!
#1792192833
0!
#1792576458
1!
#1792586416
0!
#1792969833
1!
#1792979500
0!
#1793363208
1!
#1793373166
0!
#1793745166
1!
#1793754750
0!
#1794123125
1!
#1794132750
0!
#1794501250
1!
#1794510833
0!
#1794879250
1!
#1794888875
0!
#1795257291
1!
#1795266958
0!
#1795635375
1!
#1795645041
0!
#1796013500
1!
#1796023083
0!
#1796391500
1!
#1796401166
0!
#1796769750
1!
#1796779708
0!
#1797147708
1!
#1797157291
0!
#1797525791
1!
#1797535375
0!
#1797903791
1!
#1797913416
0!
#1798281916
1!
#1798291500
0!
#1798660000
1!
#1798669541
0!
#1799038041
1!
#1799047625
0!
#1799416041
1!
#1799425708
0!
#1799794416
1!
#1799804250
0!
#1800172250
1!
#1800181833
0!
#1800550333
1!
#1800559916
0!
#1800928375
1!
#1800937958
0!
#1801306583
1!
#1801316541
0!
#1801684500
1!
#1801694083
0!
#1802062541
1!
#1802072166
0!
#1802440583
1!
#1802450250
0!
#1802818708
1!
#1802828291
0!
#1803196916
1!
#1803206875
0!
#1803564666
1!
#1803574416
0!
#1803929208
1!
#1803938958
0!
#1804293791
1!
#1804303500
0!
#1804658375
1!
#1804668083
0!
#1805022916
1!
#1805032625
0!
#1805387458
1!
#1805397166
0!
#1805752000
1!
#1805761708
0!
#1806116541
1!
#1806126250
0!
#1806481041
1!
#1806490791
0!
#1806845625
1!
#1806855333
0!
#1807210166
1!
#1807219875
0!
#1807574666
1!
#1807584458
0!
#1807939291
1!
#1807949000
0!
#1808303750
1!
#1808313541
0!
#1808668291
1!
#1808678083
0!
#1809032875
1!
#1809042625
0!
#1809397458
1!
#1809407166
0!
#1809761958
1!
#1809771708
0!
#1810126583
1!
#1810136250
0!
#1810491041
1!
#1810500833
0!
#1810855583
1!
#1810865375
0!
#1811220750
1!
#1811230416
0!
#1811584750
1!
#1811594458
0!
#1811949416
1!
#1811959000
0!
#1812313833
1!
#1812323541
0!
#1812678333
1!
#1812688083
0!
#1813042875
1!
#1813052666
0!
#1813407416
1!
#1813417208
0!
#1813762208
1!
#1813771791
0!
#1814113750
1!
#1814123333
0!
#1814465250
1!
#1814474833
0!
#1814816958
1!
#1814826791
0!
#1815168333
1!
#1815177916
0!
#1815519833
1!
#1815529416
0!
#1815871375
1!
#1815880958
0!
#1816223083
1!
#1816232916
0!
#1816574500
1!
#1816584458
0!
#1816925958
1!
#1816935541
0!
#1817277541
1!
#1817287500
0!
#1817629000
1!
#1817638583
0!
#1817980541
1!
#1817990125
0!
#1818332083
1!
#1818341666
0!
#1818683666
1!
#1818693625
0!
#1819035166
1!
#1819045125
0!
#1819386791
1!
#1819396750
0!
#1819738166
1!
#1819747750
0!
#1820089875
1!
#1820099708
0!
#1820441416
1!
#1820451250
0!
#1820792875
1!
#1820802833
0!
#1821144291
1!
#1821153875
0!
#1821495875
1!
#1821505833
0!
#1821847333
1!
#1821856916
0!
#1822198875
1!
#1822208458
0!
#1822550458
1!
#1822560416
0!
#1822902000
1!
#1822911958
0!
#1823253458
1!
#1823263041
0!
#1823596166
1!
#1823606000
0!
#1823935916
1!
#1823945500
0!
#1824275750
1!
#1824285500
0!
#1824615500
1!
#1824625083
0!
#1824955208
1!
#1824965041
0!
#1825295000
1!
#1825304583
0!
#1825634791
1!
#1825644541
0!
#1825974458
1!
#1825984041
0!
#1826314250
1!
#1826324083
0!
#1826654041
1!
#1826663625
0!
#1826993750
1!
#1827003583
0!
#1827333500
1!
#1827343083
0!
#1827673291
1!
#1827683083
0!
#1828013041
1!
#1828022625
0!
#1828352791
1!
#1828362625
0!
#1828692541
1!
#1828702125
0!
#1829032375
1!
#1829042125
0!
#1829372083
1!
#1829381666
0!
#1829711833
1!
#1829721666
0!
#1830051666
1!
#1830061250
0!
#1830391333
1!
#1830401166
0!
#1830731166
1!
#1830740750
0!
#1831070875
1!
#1831080708
0!
#1831410708
1!
#1831420291
0!
#1831750458
1!
#1831760208
0!
#1832090166
1!
#1832099750
0!
#1832429916
1!
#1832439750
0!
#1832769750
1!
#1832779333
0!
#1833109416
1!
#1833119250
0!
#1833449208
1!
#1833458791
0!
#1833780500
1!
#1833790250
0!
#1834109000
1!
#1834118750
0!
#1834437750
1!
#1834447333
0!
#1834766041
1!
#1834775750
0!
#1835094458
1!
#1835104250
0!
#1835422958
1!
#1835432750
0!
#1835751458
1!
#1835761208
0!
#1836080000
1!
#1836089708
0!
#1836408500
1!
#1836418208
0!
#1836737000
1!
#1836746708
0!
#1837065416
1!
#1837075208
0!
#1837394000
1!
#1837403708
0!
#1837722458
1!
#1837732166
0!
#1838050916
1!
#1838060666
0!
#1838379583
1!
#1838389166
0!
#1838707958
1!
#1838717666
0!
#1839036458
1!
#1839046166
0!
#1839365041
1!
#1839374625
0!
#1839693500
1!
#1839703125
0!
#1840021916
1!
#1840031625
0!
#1840350333
1!
#1840360125
0!
#1840678958
1!
#1840688625
0!
#1841007416
1!
#1841017125
0!
#1841335875
1!
#1841345583
0!
#1841664375
1!
#1841674083
0!
#1841992875
1!
#1842002583
0!
#1842321291
1!
#1842331083
0!
#1842649875
1!
#1842659583
0!
#1842978291
1!
#1842988041
0!
#1843306916
1!
#1843316541
0!
#1843628500
1!
#1843638083
0!
#1843948000
1!
#1843957583
0!
#1844267458
1!
#1844277041
0!
#1844587000
1!
#1844596958
0!
#1844906625
1!
#1844916458
0!
#1845225958
1!
#1845235916
0!
#1845545375
1!
#1845554958
0!
#1845864916
1!
#1845874875
0!
#1846184416
1!
#1846194375
0!
#1846503875
1!
#1846513833
0!
#1846823500
1!
#1846833333
0!
#1847142833
1!
#1847152791
0!
#1847462250
1!
#1847471833
0!
#1847781791
1!
#1847791750
0!
#1848101291
1!
#1848111250
0!
#1848420708
1!
#1848430291
0!
#1848740250
1!
#1848750208
0!
#1849059708
1!
#1849069666
0!
#1849379166
1!
#1849388708
0!
#1849698708
1!
#1849708625
0!
#1850018166
1!
#1850028125
0!
#1850337583
1!
#1850347166
0!
#1850657083
1!
#1850666625
0!
#1850976625
1!
#1850986583
0!
#1851296041
1!
#1851305583
0!
#1851615500
1!
#1851625083
0!
#1851935000
1!
#1851944583
0!
#1852254541
1!
#1852264500
0!
#1852573958
1!
#1852583541
0!
#1852893416
1!
#1852903000
0!
#1853212916
1!
#1853222500
0!
#1853536708
1!
#1853546416
0!
#1853861958
1!
#1853871875
0!
#1854187166
1!
#1854196875
0!
#1854512541
1!
#1854522375
0!
#1854837666
1!
#1854847375
0!
#1855162875
1!
#1855172833
0!
#1855488125
1!
#1855497833
0!
#1855813375
1!
#1855823333
0!
#1856138791
1!
#1856148375
0!
#1856463833
1!
#1856473791
0!
#1856789083
1!
#1856798791
0!
#1857114333
1!
#1857124291
0!
#1857439541
1!
#1857449250
0!
#1857764791
1!
#1857774750
0!
#1858090041
1!
#1858099750
0!
#1858415250
1!
#1858425208
0!
#1858740500
1!
#1858750208
0!
#1859065750
1!
#1859075708
0!
#1859391000
1!
#1859400708
0!
#1859716291
1!
#1859726250
0!
#1860041458
1!
#1860051166
0!
#1860366750
1!
#1860376708
0!
#1860691958
1!
#1860701625
0!
#1861017250
1!
#1861027208
0!
#1861342416
1!
#1861352125
0!
#1861667708
1!
#1861677666
0!
#1861992875
1!
#1862002583
0!
#1862318208
1!
#1862328166
0!
#1862643375
1!
#1862653083
0!
#1862968625
1!
#1862978541
0!
#1863293833
1!
#1863303541
0!
#1863627166
1!
#1863637125
0!
#1863963291
1!
#1863973041
0!
#1864299208
1!
#1864309041
0!
#1864635166
1!
#1864645125
0!
#1864971166
1!
#1864981125
0!
#1865307166
1!
#1865317125
0!
#1865643250
1!
#1865653083
0!
#1865979166
1!
#1865989125
0!
#1866315708
1!
#1866325666
0!
#1866651208
1!
#1866661166
0!
#1866987208
1!
#1866997166
0!
#1867323208
1!
#1867333166
0!
#1867659250
1!
#1867669083
0!
#1867995208
1!
#1868005166
0!
#1868331291
1!
#1868341125
0!
#1868667208
1!
#1868677166
0!
#1869003333
1!
#1869013125
0!
#1869339416
1!
#1869349125
0!
#1869675250
1!
#1869685208
0!
#1870011291
1!
#1870021125
0!
#1870347250
1!
#1870357208
0!
#1870683250
1!
#1870693208
0!
#1871019333
1!
#1871029125
0!
#1871355333
1!
#1871365166
0!
#1871691250
1!
#1871701208
0!
#1872027250
1!
#1872037208
0!
#1872363333
1!
#1872373166
0!
#1872699291
1!
#1872709208
0!
#1873035458
1!
#1873045166
0!
#1873371291
1!
#1873381250
0!
#1873716166
1!
#1873725750
0!
#1874063875
1!
#1874073708
0!
#1874411666
1!
#1874421250
0!
#1874759416
1!
#1874769250
0!
#1875107250
1!
#1875116833
0!
#1875455041
1!
#1875464791
0!
#1875802750
1!
#1875812333
0!
#1876150500
1!
#1876160333
0!
#1876498416
1!
#1876508375
0!
#1876846125
1!
#1876855875
0!
#1877193875
1!
#1877203458
0!
#1877541666
1!
#1877551416
0!
#1877889416
1!
#1877899000
0!
#1878237208
1!
#1878246958
0!
#1878585000
1!
#1878594541
0!
#1878932833
1!
#1878942500
0!
#1879280458
1!
#1879290041
0!
#1879628291
1!
#1879638083
0!
#1879976000
1!
#1879985583
0!
#1880323958
1!
#1880333625
0!
#1880671541
1!
#1880681125
0!
#1881019458
1!
#1881029166
0!
#1881367083
1!
#1881376666
0!
#1881714875
1!
#1881724708
0!
#1882062625
1!
#1882072208
0!
#1882410416
1!
#1882420250
0!
#1882758375
1!
#1882768333
0!
#1883106000
1!
#1883115791
0!
#1883453708
1!
#1883463291
0!
#1883810958
1!
#1883820916
0!
#1884171166
1!
#1884180875
0!
#1884531541
1!
#1884541500
0!
#1884891750
1!
#1884901458
0!
#1885252125
1!
#1885262083
0!
#1885612333
1!
#1885622041
0!
#1885972708
1!
#1885982666
0!
#1886332916
1!
#1886342625
0!
#1886693208
1!
#1886703166
0!
#1887053708
1!
#1887063291
0!
#1887413791
1!
#1887423750
0!
#1887774166
1!
#1887783791
0!
#1888134375
1!
#1888144333
0!
#1888494708
1!
#1888504375
0!
#1888854958
1!
#1888864916
0!
#1889215291
1!
#1889224958
0!
#1889575541
1!
#1889585500
0!
#1889935875
1!
#1889945541
0!
#1890296125
1!
#1890306083
0!
#1890656458
1!
#1890666125
0!
#1891016708
1!
#1891026666
0!
#1891377041
1!
#1891386708
0!
#1891737416
1!
#1891747250
0!
#1892097583
1!
#1892107291
0!
#1892457916
1!
#1892467875
0!
#1892818166
1!
#1892827875
0!
#1893178500
1!
#1893188458
0!
#1893538750
1!
#1893548458
0!
#1893909333
1!
#1893919000
0!
#1894283041
1!
#1894292625
0!
#1894656916
1!
#1894666625
0!
#1895030666
1!
#1895040250
0!
#1895404416
1!
#1895414250
0!
#1895778208
1!
#1895787791
0!
#1896152041
1!
#1896161875
0!
#1896525833
1!
#1896535416
0!
#1896899666
1!
#1896909500
0!
#1897273541
1!
#1897283125
0!
#1897647291
1!
#1897657125
0!
#1898021166
1!
#1898030750
0!
#1898394958
1!
#1898404708
0!
#1898768791
1!
#1898778333
0!
#1899142583
1!
#1899152333
0!
#1899516375
1!
#1899525958
0!
#1899890250
1!
#1899899958
0!
#1900264000
1!
#1900273583
0!
#1900637750
1!
#1900647583
0!
#1901011583
1!
#1901021166
0!
#1901386083
1!
#1901395708
0!
#1901759208
1!
#1901768791
0!
#1902133000
1!
#1902142833
0!
#1902506875
1!
#1902516458
0!
#1902880625
1!
#1902890458
0!
#1903254500
1!
#1903264083
0!
#1903638750
1!
#1903648583
0!
#1904026583
1!
#1904036166
0!
#1904414541
1!
#1904424250
0!
#1904802333
1!
#1904811916
0!
#1905190083
1!
#1905199916
0!
#1905578000
1!
#1905587583
0!
#1905965750
1!
#1905975583
0!
#1906353583
1!
#1906363166
0!
#1906741541
1!
#1906751250
0!
#1907129250
1!
#1907138833
0!
#1907517083
1!
#1907526916
0!
#1907904916
1!
#1907914500
0!
#1908292833
1!
#1908302583
0!
#1908680583
1!
#1908690166
0!
#1909068416
1!
#1909078250
0!
#1909456250
1!
#1909465833
0!
#1909844083
1!
#1909853916
0!
#1910231958
1!
#1910241541
0!
#1910619791
1!
#1910629583
0!
#1911007583
1!
#1911017166
0!
#1911395416
1!
#1911405250
0!
#1911783291
1!
#1911792875
0!
#1912171083
1!
#1912180916
0!
#1912558958
1!
#1912568541
0!
#1912946791
1!
#1912956583
0!
#1913334625
1!
#1913344208
0!
#1913734250
1!
#1913743791
0!
#1914137916
1!
#1914147875
0!
#1914541500
1!
#1914551458
0!
#1914945041
1!
#1914954625
0!
#1915348833
1!
#1915358666
0!
#1915752250
1!
#1915761833
0!
#1916156041
1!
#1916165875
0!
#1916559541
1!
#1916569500
0!
#1916963083
1!
#1916972666
0!
#1917366750
1!
#1917376708
0!
#1917770333
1!
#1917780291
0!
#1918173958
1!
#1918183916
0!
#1918577583
1!
#1918587500
0!
#1918981125
1!
#1918990666
0!
#1919384708
1!
#1919394291
0!
#1919788333
1!
#1919797916
0!
#1920191916
1!
#1920201500
0!
#1920595541
1!
#1920605125
0!
#1920999125
1!
#1921008708
0!
#1921402750
1!
#1921412333
0!
#1921806333
1!
#1921815916
0!
#1922210000
1!
#1922219958
0!
#1922613625
1!
#1922623583
0!
#1923017166
1!
#1923026750
0!
#1923420750
1!
#1923430333
0!
#1923837125
1!
#1923846916
0!
#1924257833
1!
#1924267541
0!
#1924678458
1!
#1924688166
0!
#1925099208
1!
#1925108791
0!
#1925519750
1!
#1925529416
0!
#1925940500
1!
#1925950083
0!
#1926361000
1!
#1926370708
0!
#1926781541
1!
#1926791333
0!
#1927202250
1!
#1927211958
0!
#1927622875
1!
#1927632583
0!
#1928043458
1!
#1928053208
0!
#1928464083
1!
#1928473833
0!
#1928884708
1!
#1928894500
0!
#1929305416
1!
#1929315125
0!
#1929726041
1!
#1929735750
0!
#1930146791
1!
#1930156375
0!
#1930567291
1!
#1930577000
0!
#1930988041
1!
#1930997625
0!
#1931408583
1!
#1931418291
0!
#1931829125
1!
#1931838916
0!
#1932249833
1!
#1932259541
0!
#1932670458
1!
#1932680166
0!
#1933091041
1!
#1933100791
0!
#1933511666
1!
#1933521416
0!
#1933946208
1!
#1933956125
0!
#1934385333
1!
#1934395291
0!
#1934824583
1!
#1934834416
0!
#1935263708
1!
#1935273541
0!
#1935702875
1!
#1935712708
0!
#1936142000
1!
#1936151958
0!
#1936581333
1!
#1936591041
0!
#1937020291
1!
#1937030250
0!
#1937459458
1!
#1937469416
0!
#1937898625
1!
#1937908583
0!
#1938337916
1!
#1938347666
0!
#1938777125
1!
#1938786833
0!
#1939216166
1!
#1939226000
0!
#1939655250
1!
#1939665208
0!
#1940094458
1!
#1940104291
0!
#1940533583
1!
#1940543541
0!
#1940972750
1!
#1940982708
0!
#1941411875
1!
#1941421833
0!
#1941851041
1!
#1941861000
0!
#1942290208
1!
#1942300166
0!
#1942729375
1!
#1942739333
0!
#1943168541
1!
#1943178500
0!
#1943607875
1!
#1943617583
0!
#1944062125
1!
#1944071750
0!
#1944521500
1!
#1944531458
0!
#1944981125
1!
#1944990708
0!
#1945440458
1!
#1945450375
0!
#1945899875
1!
#1945909541
0!
#1946359250
1!
#1946369208
0!
#1946818875
1!
#1946828458
0!
#1947278208
1!
#1947288166
0!
#1947737625
1!
#1947747291
0!
#1948197000
1!
#1948206958
0!
#1948656625
1!
#1948666208
0!
#1949115958
1!
#1949125916
0!
#1949575375
1!
#1949585041
0!
#1950034791
1!
#1950044708
0!
#1950494416
1!
#1950504000
0!
#1950953708
1!
#1950963666
0!
#1951413166
1!
#1951422791
0!
#1951872541
1!
#1951882500
0!
#1952332166
1!
#1952341750
0!
#1952791458
1!
#1952801416
0!
#1953250916
1!
#1953260541
0!
#1953726250
1!
#1953735833
0!
#1954207041
1!
#1954217000
0!
#1954687750
1!
#1954697708
0!
#1955168541
1!
#1955178500
0!
#1955649125
1!
#1955658708
0!
#1956129875
1!
#1956139458
0!
#1956610583
1!
#1956620166
0!
#1957091291
1!
#1957100875
0!
#1957572083
1!
#1957582041
0!
#1958052750
1!
#1958062333
0!
#1958533458
1!
#1958543041
0!
#1959014166
1!
#1959023750
0!
#1959494916
1!
#1959504500
0!
#1959975625
1!
#1959985208
0!
#1960456416
1!
#1960466375
0!
#1960937083
1!
#1960946666
0!
#1961417791
1!
#1961427375
0!
#1961898500
1!
#1961908083
0!
#1962379250
1!
#1962388833
0!
#1962859958
1!
#1962869541
0!
#1963340666
1!
#1963350250
0!
#1963776666
1!
#1963786333
0!
#1964281916
1!
#1964291625
0!
#1964787166
1!
#1964796875
0!
#1965292625
1!
#1965302208
0!
#1965797750
1!
#1965807375
0!
#1966302958
1!
#1966312625
0!
#1966808208
1!
#1966817916
0!
#1967313500
1!
#1967323166
0!
#1967818916
1!
#1967828500
0!
#1968323958
1!
#1968333666
0!
#1968829250
1!
#1968838916
0!
#1969334500
1!
#1969344208
0!
#1969839791
1!
#1969849458
0!
#1970345083
1!
#1970354708
0!
#1970850250
1!
#1970859958
0!
#1971355500
1!
#1971365208
0!
#1971860791
1!
#1971870500
0!
#1972366083
1!
#1972375750
0!
#1972871291
1!
#1972881000
0!
#1973376541
1!
#1973386250
0!
#1973898708
1!
#1973908541
0!
#1974431000
1!
#1974440833
0!
#1974963375
1!
#1974973125
0!
#1975495625
1!
#1975505458
0!
#1976027958
1!
#1976037750
0!
#1976560208
1!
#1976570041
0!
#1977092583
1!
#1977102333
0!
#1977624875
1!
#1977634625
0!
